{
    "KPlugin": {
        "Authors": [
            {
                "Email": "notmart@gmail.com",
                "Name": "Marco Martin",
                "Name[ca@valencia]": "Marco Martin",
                "Name[ca]": "Marco Martin",
                "Name[es]": "Marco Martin",
                "Name[eu]": "Marco Martin",
                "Name[fr]": "Marco Martin",
                "Name[it]": "Marco Martin",
                "Name[nl]": "Marco Martin",
                "Name[pt]": "Marco Martin",
                "Name[sl]": "Marco Martin",
                "Name[tr]": "Marco Martin",
                "Name[uk]": "Marco Martin",
                "Name[vi]": "Marco Martin",
                "Name[x-test]": "xxMarco Martinxx"
            }
        ],
        "Category": "Examples",
        "Description": "gallery of widgets done with Plasma QtComponents",
        "Description[ca@valencia]": "Galeria de ginys fets amb «QtComponents» de Plasma",
        "Description[ca]": "Galeria de ginys fets amb el «QtComponents» del Plasma",
        "Description[es]": "Galería de widgets realizada con QtComponents de Plasma",
        "Description[eu]": "Plasmaren «QtComponents» erabiliz egindako trepeta-galeria",
        "Description[it]": "galleria di widget realizzata con Plasma QtComponents",
        "Description[nl]": "galerij van widgets gemaakt met Plasma QtComponents",
        "Description[sl]": "galerija gradnikov izdelanih s Plasma QtComponents",
        "Description[tr]": "Plasma QtComponents ile yapılmış araç takımları galerisi",
        "Description[uk]": "Галерея віджетів, створених за допомогою QtComponent-ів Плазми",
        "Description[vi]": "nơi trưng bày các phụ kiện làm bằng QtComponents của Plasma",
        "Description[x-test]": "xxgallery of widgets done with Plasma QtComponentsxx",
        "EnabledByDefault": true,
        "Icon": "preferences-desktop-theme",
        "Id": "org.kde.example.widgetgallery",
        "License": "GPL",
        "Name": "Widgets gallery",
        "Name[ca@valencia]": "Galeria de ginys",
        "Name[ca]": "Galeria de ginys",
        "Name[es]": "Galería de widgets",
        "Name[eu]": "Trepeten galeria",
        "Name[fr]": "Galerie de composants graphiques",
        "Name[it]": "Galleria dei widget",
        "Name[nl]": "Galerij van widgets",
        "Name[sl]": "Galerija gradnikov",
        "Name[tr]": "Araç takımları galerisi",
        "Name[uk]": "Галерея віджетів",
        "Name[vi]": "Bộ sưu tập phụ kiện",
        "Name[x-test]": "xxWidgets galleryxx",
        "ServiceTypes": [
            "Plasma/Applet"
        ],
        "Version": "1.0",
        "Website": "https://plasma.kde.org/"
    },
    "X-Plasma-API": "declarativeappletscript",
    "X-Plasma-MainScript": "ui/main.qml"
}
