{
    "KPlugin": {
        "Authors": [
            {
                "Email": "%{EMAIL}",
                "Name": "%{AUTHOR}",
                "Name[ca@valencia]": "%{AUTHOR}",
                "Name[ca]": "%{AUTHOR}",
                "Name[es]": "%{AUTHOR}",
                "Name[eu]": "%{AUTHOR}",
                "Name[fr]": "%{AUTHOR}",
                "Name[it]": "%{AUTHOR}",
                "Name[nl]": "%{AUTHOR}",
                "Name[sl]": "%{AUTHOR}",
                "Name[tr]": "%{AUTHOR}",
                "Name[uk]": "%{AUTHOR}",
                "Name[vi]": "%{AUTHOR}",
                "Name[x-test]": "xx%{AUTHOR}xx"
            }
        ],
        "Category": "Utilities",
        "Description": "what your app does in a few words",
        "Description[ca@valencia]": "Què fa esta aplicació en poques paraules",
        "Description[ca]": "Què fa aquesta aplicació en poques paraules",
        "Description[es]": "Lo que hace su aplicación en pocas palabras",
        "Description[eu]": "zure aplikazioak egiten duena hitz gutxitan",
        "Description[fr]": "ce que votre application fait en quelques mots",
        "Description[it]": "Cosa fa la tua applicazione in poche parole",
        "Description[nl]": "wat uw app doet in een paar woorden",
        "Description[sl]": "v parih besedah kar počne vaša aplikacija",
        "Description[tr]": "uygulamanızı birkaç sözcükle anlatın",
        "Description[uk]": "призначення вашої програми у декількох словах",
        "Description[vi]": "dùng vài từ để mô tả ứng dụng của bạn làm việc gì",
        "Description[x-test]": "xxwhat your app does in a few wordsxx",
        "EnabledByDefault": true,
        "Icon": "applications-system",
        "Id": "org.kde.plasma.%{APPNAMELC}",
        "License": "LGPL-2.1+",
        "Name": "%{APPNAME}",
        "Name[ca@valencia]": "%{APPNAME}",
        "Name[ca]": "%{APPNAME}",
        "Name[es]": "%{APPNAME}",
        "Name[eu]": "%{APPNAME}",
        "Name[fr]": "%{APPNAME}",
        "Name[it]": "%{APPNAME}",
        "Name[nl]": "%{APPNAME}",
        "Name[sl]": "%{APPNAME}",
        "Name[tr]": "%{APPNAME}",
        "Name[uk]": "%{APPNAME}",
        "Name[vi]": "%{APPNAME}",
        "Name[x-test]": "xx%{APPNAME}xx",
        "ServiceTypes": [
            "Plasma/Applet"
        ],
        "Version": "1.0",
        "Website": "https://plasma.kde.org/"
    },
    "X-Plasma-API": "declarativeappletscript",
    "X-Plasma-MainScript": "ui/main.qml"
}
