{
    "KPlugin": {
        "Authors": [
            {
                "Email": "mart@kde.org",
                "Name": "Marco Martin",
                "Name[ca@valencia]": "Marco Martin",
                "Name[ca]": "Marco Martin",
                "Name[es]": "Marco Martin",
                "Name[eu]": "Marco Martin",
                "Name[fr]": "Marco Martin",
                "Name[it]": "Marco Martin",
                "Name[nl]": "Marco Martin",
                "Name[pt]": "Marco Martin",
                "Name[sl]": "Marco Martin",
                "Name[tr]": "Marco Martin",
                "Name[uk]": "Marco Martin",
                "Name[vi]": "Marco Martin",
                "Name[x-test]": "xxMarco Martinxx"
            }
        ],
        "Category": "Miscellaneous",
        "Description": "Example applet that shows how to use Models embedded in DataEngines",
        "Description[ca@valencia]": "Miniaplicació de prova que mostra com usar Models incrustats en «DataEngines»",
        "Description[ca]": "Miniaplicació de prova que mostra com usar Models incrustats en «DataEngines»",
        "Description[es]": "Miniaplicación de ejemplo que muestra cómo usar modelos integrados en motores de datos",
        "Description[eu]": "Adibide aplikaziotxoa, «DataEngine»etan kapsulatutako modeloak nola erabili erakusten duena",
        "Description[it]": "Applet di esempio che mostra come utilizzare i modelli integrati nei motori di dati",
        "Description[nl]": "Voorbeeld van applet dat toont hoe modellen ingebed in gegevensengines zijn te gebruiken",
        "Description[sl]": "Primer apleta, ki kaže kako uporabljati modele vgrajene v podatkovne stroje",
        "Description[tr]": "DataEngines içinde gömülü modellerin nice kullanılacağını gösteren örnek uygulama",
        "Description[uk]": "Приклад аплету, який демонструє використання моделей, вбудованих до рушіїв даних",
        "Description[vi]": "Tiểu ứng dụng ví dụ cho thấy cách dùng các Model trong DataEngine",
        "Description[x-test]": "xxExample applet that shows how to use Models embedded in DataEnginesxx",
        "Icon": "",
        "Id": "org.kde.example.dataenginemodel",
        "License": "GPL",
        "Name": "Dataengine model",
        "Name[ca@valencia]": "Model de «Dataengine»",
        "Name[ca]": "Model de «Dataengine»",
        "Name[es]": "Modelo del motor de datos",
        "Name[eu]": "Datu-motor eredua",
        "Name[fr]": "Modèle de moteur de données",
        "Name[it]": "Modello del motore di dati",
        "Name[nl]": "Model van gegevensengine",
        "Name[sl]": "Model podatkovnega stroja",
        "Name[sv]": "Datagränssnittsmodell",
        "Name[tr]": "Veri motoru modeli",
        "Name[uk]": "Модель рушія даних",
        "Name[vi]": "Model Dataengine",
        "Name[x-test]": "xxDataengine modelxx",
        "ServiceTypes": [
            "Plasma/Applet"
        ],
        "Version": "",
        "Website": ""
    },
    "Keywords": "",
    "X-KDE-ParentApp": "",
    "X-Plasma-API": "declarativeappletscript",
    "X-Plasma-MainScript": "ui/main.qml"
}
