{
    "KPlugin": {
        "Authors": [
            {
                "Email": "notmart@gmail.com",
                "Name": "Marco Martin",
                "Name[ca@valencia]": "Marco Martin",
                "Name[ca]": "Marco Martin",
                "Name[es]": "Marco Martin",
                "Name[eu]": "Marco Martin",
                "Name[fr]": "Marco Martin",
                "Name[it]": "Marco Martin",
                "Name[nl]": "Marco Martin",
                "Name[pt]": "Marco Martin",
                "Name[sl]": "Marco Martin",
                "Name[tr]": "Marco Martin",
                "Name[uk]": "Marco Martin",
                "Name[vi]": "Marco Martin",
                "Name[x-test]": "xxMarco Martinxx"
            }
        ],
        "Category": "Examples",
        "Description": "The Same game QML Qt demo converted as plasmoid",
        "Description[ca@valencia]": "La demo Qt en QML del joc Same convertit com a plasmoide",
        "Description[ca]": "La demo Qt en QML del joc Same convertit com a plasmoide",
        "Description[es]": "La demostración del juego «iguales» de Qt en QML convertida en plasmoide",
        "Description[eu]": "Same jokoaren QML Qt erakusgaia plasmoide gisa bihurtua",
        "Description[it]": "La dimostrazione QML Qt del gioco Same convertito in plasmoide",
        "Description[nl]": "De demo van QML Qt van 'Zelfde spel' geconverteerd als plasmoid",
        "Description[sl]": "Demo iste igre v QML Qt predelano kot plasmoid",
        "Description[tr]": "Same oyunu QML Qt demosu, Plasmoid olarak",
        "Description[uk]": "Плазмоїд-демонстрація тієї самої гри на основі QML",
        "Description[vi]": "Chương trình minh hoạ cho Qt, Same game, viết bằng QML, chuyển dạng thành plasmoid",
        "Description[x-test]": "xxThe Same game QML Qt demo converted as plasmoidxx",
        "EnabledByDefault": true,
        "Icon": "applications-games",
        "Id": "org.kde.samegame-qml",
        "License": "GPL",
        "Name": "Same game (QML)",
        "Name[ca@valencia]": "Joc Same (QML)",
        "Name[ca]": "Joc Same (QML)",
        "Name[es]": "Juego iguales (QML)",
        "Name[eu]": "Same jokoa (QML)",
        "Name[fr]": "Même jeu (QML)",
        "Name[it]": "Same game (QML)",
        "Name[nl]": "Zelfde spel (QML)",
        "Name[sl]": "Ista igra (QML)",
        "Name[tr]": "Aynı oyun (QML)",
        "Name[uk]": "Та сама гра (QML)",
        "Name[vi]": "Trò chơi Same game (QML)",
        "Name[x-test]": "xxSame game (QML)xx",
        "ServiceTypes": [
            "Plasma/Applet"
        ],
        "Version": "1.0",
        "Website": "https://plasma.kde.org/"
    },
    "X-Plasma-API": "declarativeappletscript",
    "X-Plasma-MainScript": "qml/samegame.qml"
}
